{
  "description": "Bitcode exemplo no gitlab",
  "name": "sample-bitcode-01",
  "path": "lib",
  "version": "0.0.2",
  "author": "Ozair Jr",
  "dependencies": [
    ":sample-bitcode-01-0.0.2.jar:"
  ]
}
